-------------------------------------------------------------------------------
Test set: com.example.springboot.ControllerTest
-------------------------------------------------------------------------------
Tests run: 3, Failures: 0, Errors: 0, Skipped: 0, Time elapsed: 10.716 s - in com.example.springboot.ControllerTest
